%YAML 1.1
%TAG !u! tag:unity3d.com,2011:
--- !u!1045 &1
EditorBuildSettings:
  m_ObjectHideFlags: 0
  serializedVersion: 2
  m_Scenes:
  - enabled: 1
    path: Assets/Scenes/StartScene.unity
    guid: 21505071bf64a424781ea5ef032c3b48
  - enabled: 1
    path: Assets/Scenes/Scene 1.unity
    guid: 9fc0d4010bbf28b4594072e72b8655ab
  - enabled: 1
    path: Assets/Scenes/Scene 2.unity
    guid: 679d91f89d75f474bbaf788a15d316c7
  m_configObjects:
    com.unity.adaptiveperformance.loader_settings: {fileID: 11400000, guid: d49bce39febdaaa48947d273c9a62c68, type: 2}
    com.unity.adaptiveperformance.simulator.provider_settings: {fileID: 11400000, guid: 0f6077b1f86ecdc4ba2570fab614b4c0, type: 2}
